10a6b0b0d688462c90e05f6d21454676e26fe07d58cee4430c
0a8641ed186b1892d31ee23606b0c1564dce74b7d7c45ca718
9327dc30f3819b8727ba7cc4551da33495f32d7bc2bea29b02
2483f1d95ec939471659840e36f0dfcceac09ed89d33bb52d2
4d253f5080043e503e151bc9bfdf1ffbbd3e8bd96e289bc1d5
071b9efb19232a9f6b3006a1463aacd04c4f10dd0765fb44ce
dd3781cff1835bd28a8bcaa71783f710d66e2c893606f26f71
f47c1ab7d28d11ee26be34dc685ee6d36c0c26078066291569
fe09cf41a5b6517badd3dc47608a70c27c00701e25810dc3f2
76a90b1b24b209ab2966f01ee35cfec34d5c9ceb139160fc42
6811d04de862b1064bc22a2798d0cc57bc1c9225959091b1eb
9f56ceb2e9804f5a7d90f8f376fb769945af0eda940927e73a
7de24607dd38c0449e2dad1597e5f3d0f47bdf0202637a1008
b083b451c799e935e119c579a18ed0277c94abe760c45181ec
5eaac50b74524306ecb902cd4e4083e74f7c46300cb6f53bda
a45d17a50b4078c0a16975adc9a01ef5cd800a4308e1a585d4
a555f2221ce10f87672b7736624c50de0a3ab16664bfdf5d3f
b5cbc788eefbc8fe5a4477371e9c4f9785573c6f7970c01424
c956a4ca8ea7d88bdb0be2798d66f3f797704b28bfd7f2f94e
ba6cdabd50fb4789a0a27243df048433e346ba4f3d8632abf6
462128c9c6095f3d9ee421d43d67874a36cd80eff06285fd71
dcff5339138e33e8204119fe47225bdfbe5f2896acffb1b041
4a96cde39fb441b8cb640be50a14bae3dc32999dd198046b8c
9c77fcc1e1dc93e2fbb08987acdaddbc4cdfcc778b52daef5b
51117db4fd318af29d3b11dd2db65091c983112cff193bb6d2
12a8da6c1f22962d9257de265ed4a53c0bb6cc94beea54e670
1eb04a2a23e8efbb02d3a50831f5c74ec8a6fd89254c5b8bc5
c5bf8ee1d6cf24e77a353ef95dba350168caa3d86863a08004
f511e35ee17caefa9a07039e9d62e302300aafede6feebc1a9
c9104d84fe9ff4f528967772e421b2dbefe21228a91c86324a
42c2a4de62c8dd50b2aefb9d8c3a56819f4882dfaf0ab99d12
22509554a0b11bdec548d23ed63010d6aee7765b199326d933
590254214cd67450427f4c703b319e0090c6fae7b5aa08d0e1
5d5c28dabcc52e00bad6c0f92fa7b9ba137e5ead2350596765
841ed0f649a8dd471ba917a135af99f25bfc84ad8f05684137
56dbd97eefa5c5e9969f244f1e7cdc3eaf0e42cde629a3abd2
e481a3451635997fc42ca7807982ca53cc18c3d006cd1fbaf1
1ffc995c06ffad34be6ce51dd7c9448db88f45ba1fe723785c
ae96b99069e31d65177d2275b0c49913a62ac559ed0124db80
a811153035094991b682014b43dfab97f6aec5713f42d00815
