8fc42e0f8c7afc5dc6b0b07d922a1eac54354bee0a419913bd
da979450e0c7fc15a6e098843443b59d87150b5261e28ff8ae
1c5fcec3f62e86acbec67c8f234ab71e0fc213db86e6c6d5ed
e7db74d858a264fa040832c9b7f2d8796f72ee2971f5d08f99
b90b3689266856e2af63bb5213ab3585df60e41e5d61c9e60f
66d44ebe06aa4301a9c2acbac14a2bc05cdf0e9e81ec51c80f
1cbb5ae4ceef5e3d577e56f0a23909ab46ee51e2383c18bddd
a0ee1bd3fbb90f22cfb6d6a27e9afa87d6164cf1af940184a7
c0a792f73a046cac3d2333dd17bbe8c9a0df0de570ec585e0e
9dbb98721028b32ac81da17f71954525068404c3dc9fcf599a
6cefceb9047e70b1257b8515cd419d06a286662865fac7317d
dbbf73e23afbb4f944b5058b5777bb4c201e5389fe4ef0b95b
e611bec73ac9c3fd8ddf5126a196263f377bb9e77587d02dc8
817c3ecbb0a6716163e3ca848b6a87deb535fe3e172fbe3618
bbb26cdb3ebc294a874d26a7c7f8ac6c016153e55f68b84633
05222175d383097358ab3450cd1d48d04f4005ae53686c5fbb
2cf0fedaae6527059f1c9c31d82fd039645158e9aac6f8f243
ce8919b6c65d46748a3d06ab96d1366cef567ebf35f4e3085c
bb93c0dbbc69893f14c5584263cfbe8d66604fad7bb5dde2dd
95c4d043599e0551cd701b8624cfb6c54be93f477f49e2b89b
436ed1cd041323931d5bf346d8c91aa8adc75524d7397cd166
e50784e48827c3a1f8961f19180341989dd4dfa3aeb84e5401
24b0dcd73094a9c84a8d729526f890b8d9a5a148ba6d456a0e
8e80ba76c975b252e5008d46174768898de5073466569a48e7
9d14080600d4adafb6b9a7992b6adc6162e49019c69d9671e8
8ff3cd66b82a42ab6663569ea6dd31b7c6cc45e0c8855bf1e6
d6718feb35bae364fcfc2681416ded3346edd5b080b050beb6
13725f606649fa46084c28c7218fb4c15d60d440943eeadc52
d747901920929927f6a7757eff6c25e885bfe744c2a4183a36
e12b0179c2d0428d346f83ca4c29a5f33bda9f79a1eeeab1e6
b6adee92bb4e6c940801940be38b593c2f7eb3cf1978e6c4ad
30b79bf27d53c9bd659c16efda1682f018266d1f731f64f1ae
aa2d7b578894bc9873c0cf60560d4506e2b43c4fb84e7059ed
636d74f913850eb280054dfb80a766a1faaf24d45063abccb0
3bd16739d81accc561fe0499fa448cf493a67db376010bf1c9
ef90e5dea34fb2adea910b917c005add857a8884a4da7ed0bf
90f9048a74f3116a10efd935a3968dacbdb7e002c922239dac
9f1136fe3aa62893675d5f9502a306d2899f31033f9826a076
db197fa79867d9caf009289732ce37d283f7f09dcb165d707c
6be5cd09548c1c67423a01fac4e81502d9b12fa52dcd5c9b54
