b4c08f790e8bd65bd11f4e87ffab38a92e119bffd7d6b8486d
16d10c168b3b6dacf5d01e65e33481a5996186f67b53bdf90e
60c7f5b569b396f984d34d2de2b8c4ae6995e6da696f28492b
68ee78350e292bcf05012723b75ddc0cb1f8aa7dfb1fe248e0
40095fd961115213c9f3fbfeceb579af0e03a62a6d17dd0705
74cd5dacafe3dcc44983790e057ed2c803d0718c8e72763263
bc537f5273b704ccb93f9fd6a0bb43893323684a06f603b539
8ee456bd4089bbaecb99140f83d2806d8a75cde8e00e40614a
97475176c9a37e2212813824f6eb59a9c4077eb43adeb3bb79
41ac846c9e42ce65331b499de4016b90e3afd85fddd26906e9
811f8afe365c795211aae9c39c766c03a58b4ccbf3e0a5f548
f0e4f63250363c998802313a8eda91c25d71e4db77b136bd66
522c521e0664dfa542b0c7b6d008adee0112a518076158cf47
0c99473bc6ff42e723f04290817bf2a704e0b3ab80acc4f2de
0ea9eaca5b5170296c72a14bf47e671671a14cb9d89c3e3c30
d07bf3505f6e2d3a34647cfc551beba132f2165c03bd30949c
7dd270e0cb35e7206bf245c0eb27e912637001fe4611c674d2
f9fb04e388041f0c0589bd525ae2d1fd4790faba73e0e30553
7a2c2a8cd8318bb9a07e744e03e43f733187719be70a4351f0
b23c163ef008f208552639beff3866159e75ba06b8f9a09eb5
262628b0227183760376d164afc1e932a6f6b9d6c0f958fb14
b17534fceeaabbcb2a8af73c31eb279fcb8911304f9bc7f524
606aa6af84de24a1f52fe1cd31eff57dcdb5cacd6734039253
91306d802c5c46f3e3af11402e0fc253baa1a375c674fdefa6
a6e716c6b5352deedf8ec8620f04bdf8ee31a20a2e97a01550
2135a05360ae859877efb40cee504d75e60d31742c76da636c
ed905a6d4112f6c07ac0b512f84c964518470570fba5492a6a
1c6ae662f75fdbab29734d8ffdefc7fd20c33db36060c3afc1
73d621ac85ee23368e02de34c0f9e0158a95e35dec93f85056
16c871e80dc915957f38dddd10fcc4876d203074bdd049167b
cfe8e6085dc33c0d34bf7de185e3de4e359e14e02dac606bc0
4c2ff877371fb3939cf43c4ceffc7ed425873f03e66592a900
7483180db3d5b64747af52d504927988f0b93ba22d15bca07a
84313094bbe1a2ff0df410223eecb86c8cd20f17a654a49735
b1213e14be77e5d90a6ff114ccef6fbe63474fe4fd733cf20f
c4c8b5b5d828a25b80c8f3ebd8c0a9a6e2b35d69de7b1598a7
11afd77c43e4fbd04fe62997bb99b10334313dbce09eec5bba
efd60b23ac122ada14ce05e477595d17695c47fa58c9434e6f
46ddb723494ce5b32b3a36cdba73309f011354c212d748cedd
7128b0610d44fb60b2cdc1cdbbc2b344141fa574d2fd064273
