f2412ee53194303863bb411b9f68eb38c6ac9c475671469ec0
36171918999b9a6c238b26d8b7dae019caaca89862ba206dd7
39b495da039826b3859a5a9480da4c52b6d529d47fcd080f8d
15d72a3c2c66ababc198c2e2b67bef8d0d6c638822980d4a81
17945ac7457b55723062125d281e4ec692f9c5193f2e3b90fb
dcc1d9958d51180b51989ebb605730541ce4f11948709b2609
5a1d2dd449f745825b40fa4291e577a79afb2a37af28731877
4e1f30d947c347d6ab72e0744714808f50f6bc81249204e6c2
f593fac72029de276ff128eb49a86acc5c4082303f0188de35
b64e464ee74d83f9cef290f1791bb3c164b012506964593c12
c7b5bc4ff60ed574b83a94f9a62e699d990192a8911debcf95
5f1ea74150c91e293dc5f73136c0d66f64e69c65723e69232d
b2fc883db59c17381d78a2fb3ba1c6268547de9b2f5017d110
7b6405be75eae0f322115eb295e9ac218019229575b9ec55ba
a62008492167540964a31f34ee2d00538c99184faa6b60cd83
77c9b92ef1eb7f6f336f60a022be6d7769f11d96f66620a892
ad774c94ac669beb38529d13fc0689155026385fdab4021c94
8e610c25b8648f2b3189ae5cc3e5f19f2b709ad29882c0c4cb
aa294d7f9e6b96ce1b119c8c22a1cba1d727be296c2a28ae97
a698e5b4f33e3e9888d97f7cceb92ef5402ed9e4499dc224fa
eca03f44c8c06cee1908cb8d41568c90a86904864d5a75642f
ca3877458b24b8c2cfe56448867b21b4c98064617f82d3618d
3a1fd09b5a901d44c7a97a37d5cf1a25e3372561913a34c240
f41e3bd45b47dbebb2078ad439cd34c51884440d31da719617
cf29f3258357e766b2c73a57940c9c9a7031d794ed696f1b31
942d9d0e7901fd83c21e6425905cb8a7c92deba0dbbce259dc
0b3069af195a90d0690f29e1d0baeed97e5d9a9e408708ab0f
e581c738f106e0d1437c0ddcf001ef730222ae80000c803bc7
8f3d399c850f2393de2eac1a39197dc2582331e2ddded34c1f
f880539730f99482d894e5541135f537e9d8e1cc25ed4d4919
e08f1c31fd962fb1c247ca4a2a4e997dfb9f0b6c747f8a7dc7
e767f602f52f4137d7add3cff29d1d6b910b1f1d2020ef5269
a2ad7b334406f1bbba8b0d62825d354eecac10662a0d3931cd
27328e0268c465f27b26e8e7f74dd11fd0d21f8733ee7c9bf3
b66b834d939a0f66b95cd8c009643e438511048d7a1300a0d9
10c881943d45a123c9e0feb56b353d03421f35c7c4a380fcb6
4cf21c3966f7f5ad866cbf1d82036e5109f819f6df9a533b27
0f90a62d51a5f03c6e505328dcc1a63a875eb68bfba445c547
671e093a1e5135f050f083b12a7b0e0e2c761d26833d2da5de
f506b8d1bd08e15343cfb9af6b1392ac45d4451d3963da013f
