fbd3301b55f6e61c39c3968de28c9eb5c64058fbd8986f161b
a23973ee355359c303c302784843bfaa158738aa6a492653f3
44f2e7296183353e39c37ed628e81bd74161937a0d1467c3a3
28a71c2c7f65f9a03b58e44aaf164305c90f3c2a6b67b9eb78
610446528bcf77b27f78f1f517869f97ac1c249efa0f83713e
bb59b7a223e16be864029e1502cfeea7e930ff37a874d6dec4
05cdd77ff3aa64cb5fff82dcb8f57b98a969977ad2a09ae0e8
691d09721733aff13fd5f6dbddbae41a8e0fe545052d789c41
e8522bff28c5c37ed9e33caf020e0804faaf6de163aa346670
4ea78ffe183a538b03903ce4f5a5b2a2a72f1b60c07eff2b1d
54c3817ac5f86f4586cd228c5e1f60d7c31b09e40911c8515e
dced5dd8d0de7e9f4128afb683e4f7682da2210d4d141a296e
38ba5e9bc37d9afdd732f275e3225e55716f703ff2250adf54
b2accc0fbb47ba18e51bcb7abfac16e4831a6e3d494fac1e41
6b885a149a1317ed21a110f9f6a417756ed35648457ad507c2
50a16336f972aec179e5c4e710086a9a5b6fae996bd2a26fd1
882ca38ca0e1c71865b90109dc24499a33f248f13689955535
34428acf8201f49f755516e5294ef1135a572f2f0b89ef65a0
600bd31679996ded64c185666354aa9c9b90ebc294c92d8dd9
c1c653e94b0cd0f74133675d75eeda23f02408b16157e0de30
cfd29015e7eb0e27fe046ee13a3634c9f79afcda36647f9d0f
f947a9ca0064aef22170112d39126f705249e6e5d5bd97e42d
77e2da087a0bd1c6ec6e1fec39f31c41965de3faf54928b61b
14b77c70a55fb9c30f075e3c592b74c32c42aa1ff4d24e47e4
24eaa4b5cd00a851d5cc0b1df0340728fffc68e9fb59bc8881
92a4a8988674601828954814f9e7a5b5890ad8187874c28630
410802e05ec00b996965f8630e7d1664775943daa609706a0a
01f04dcc0b7cf490841c0073771dfd52133a2e9212447c68a7
4b79cd4f526b43aa27b8321e6d318508fae764e9f36fe22d83
8b1289d4a60f71cede5895ccebea7526679e7c82603cd108cf
50229cd334b154fea936816fa3ba2275522d059036f0619a13
67e245fc0719a894df5c23c4305dc749cbb72d07756382f096
c75923d48c5d31b4383ae53bc74da0437bdece6b245884dec3
ce2858d343fea9c144d2712b57cf138b0f76e5860d4a94fe52
2ad36a3423d19e52481ac42688596260de0c4da1a6ff6f139a
dda596e7a12b3cffa9a37a4c24544f4dd5c6202874d9fbb5c5
a4da6ebe0413f55251a592c5c5b224802d80facaeda19fb8d7
3829f5b4df2aff9eaf16a8bba4dddf01f89b6a2c9057582c85
af316df5d8ed6a9815c5ac0344c1253740ff0a342a5c5ef354
8a7d02cb568289b5994dd51e049523805d86713ca0c38ee704
